<svg width="29" height="29" viewBox="0 0 29 29" fill="none" xmlns="http://www.w3.org/2000/svg">
<g clip-path="url(#clip0)">
<path d="M27.5968 26.1935H27.129V11.6935C27.129 10.92 26.4994 10.2903 25.7258 10.2903H20.5806V6.54839H22.6332L21.3857 2.80645H19.787L15.5773 0H13.4234L9.21369 2.80645H7.61474L6.36727 6.54839H8.41935V10.2903H3.27419C2.50064 10.2903 1.87097 10.92 1.87097 11.6935V26.1935H1.40323C0.62967 26.1935 0 26.8232 0 27.5968V29H29V27.5968C29 26.8232 28.3703 26.1935 27.5968 26.1935ZM25.7258 11.2258C25.9839 11.2258 26.1935 11.4359 26.1935 11.6935V26.1935H20.5806V11.2258H25.7258ZM8.28894 3.74194H9.49667L13.7063 0.935484H15.2943L19.504 3.74194H20.7115L21.335 5.6129H7.66544L8.28894 3.74194ZM19.6452 6.54839V26.1935H18.7097V17.8317C18.7097 16.7565 17.9809 15.8237 16.9378 15.5627L14.5 14.9534L12.0622 15.5627C11.0191 15.8237 10.2903 16.7565 10.2903 17.8317V26.1935H9.35484V6.54839H19.6452ZM17.7742 20.5806H14.9677V18.7097H17.7742V20.5806ZM17.7742 21.5161V23.3871H14.9677V21.5161H17.7742ZM14.9677 17.7742V16.0345L16.7115 16.4705C17.3181 16.6222 17.7443 17.1539 17.7696 17.7742H14.9677ZM14.0323 17.7742H11.2304C11.2557 17.1539 11.6819 16.6222 12.2885 16.4705L14.0323 16.0345V17.7742ZM11.2258 18.7097H14.0323V20.5806H11.2258V18.7097ZM11.2258 21.5161H14.0323V23.3871H11.2258V21.5161ZM11.2258 24.3226H14.0323V26.1935H11.2258V24.3226ZM14.9677 24.3226H17.7742V26.1935H14.9677V24.3226ZM2.80645 11.6935C2.80645 11.4359 3.01611 11.2258 3.27419 11.2258H8.41935V26.1935H2.80645V11.6935ZM28.0645 28.0645H0.935484V27.5968C0.935484 27.3392 1.14515 27.129 1.40323 27.129H27.5968C27.8549 27.129 28.0645 27.3392 28.0645 27.5968V28.0645Z" fill="#363E4E"/>
<path d="M14.5 12.1613C14.2419 12.1613 14.0323 11.9512 14.0323 11.6936H13.0968C13.0968 12.3024 13.4892 12.817 14.0323 13.0107V14.0323H14.9678V13.0968H15.9033V11.6936C15.9033 10.92 15.2736 10.2903 14.5 10.2903C14.2419 10.2903 14.0323 10.0802 14.0323 9.8226V9.35485H14.5C14.7581 9.35485 14.9678 9.56497 14.9678 9.8226H15.9033C15.9033 9.21371 15.5109 8.69915 14.9678 8.50547V7.48389H14.0323V8.41937H13.0968V9.8226C13.0968 10.5962 13.7265 11.2258 14.5 11.2258C14.7581 11.2258 14.9678 11.4359 14.9678 11.6936V12.1613H14.5Z" fill="#363E4E"/>
<path d="M25.258 25.258V21.5161H21.5161V25.258H25.258ZM22.4516 22.4516H24.3226V24.3226H22.4516V22.4516Z" fill="#363E4E"/>
<path d="M25.258 16.8387H21.5161V20.5807H25.258V16.8387ZM24.3226 19.6452H22.4516V17.7742H24.3226V19.6452Z" fill="#363E4E"/>
<path d="M25.258 12.1613H21.5161V15.9032H25.258V12.1613ZM24.3226 14.9677H22.4516V13.0967H24.3226V14.9677Z" fill="#363E4E"/>
<path d="M3.74194 25.258H7.48388V21.5161H3.74194V25.258ZM4.67743 22.4516H6.54839V24.3226H4.67743V22.4516Z" fill="#363E4E"/>
<path d="M3.74194 20.5807H7.48388V16.8387H3.74194V20.5807ZM4.67743 17.7742H6.54839V19.6452H4.67743V17.7742Z" fill="#363E4E"/>
<path d="M3.74194 12.1613V15.9032H7.48388V12.1613H3.74194ZM6.54839 14.9677H4.67743V13.0967H6.54839V14.9677Z" fill="#363E4E"/>
<path d="M16.8387 10.2904H17.7742V11.2259H16.8387V10.2904Z" fill="#363E4E"/>
<path d="M11.2258 10.2904H12.1613V11.2259H11.2258V10.2904Z" fill="#363E4E"/>
</g>
<defs>
<clipPath id="clip0">
<rect width="29" height="29" fill="white"/>
</clipPath>
</defs>
</svg>
