<svg width="18" height="16" viewBox="0 0 18 16" fill="none" xmlns="http://www.w3.org/2000/svg">
<path d="M8.99989 13.0689C9.45949 13.0689 9.83206 12.6963 9.83206 12.2367C9.83206 11.7771 9.45949 11.4045 8.99989 11.4045C8.5403 11.4045 8.16772 11.7771 8.16772 12.2367C8.16772 12.6963 8.5403 13.0689 8.99989 13.0689Z" fill="white"/>
<path d="M8.88805 10.0774C9.141 10.0774 9.34629 9.87211 9.34629 9.61916V5.26586C9.34629 5.01291 9.141 4.80762 8.88805 4.80762C8.6351 4.80762 8.42981 5.01291 8.42981 5.26586V9.61916C8.42981 9.87211 8.6351 10.0774 8.88805 10.0774Z" fill="white"/>
<path d="M10.6702 1.64457L10.6493 1.61226C10.225 0.958349 9.78646 0.281982 8.99989 0.281982C8.18009 0.281982 7.75117 0.967972 7.33646 1.63174C7.3344 1.63494 7.32157 1.65556 7.31951 1.659L0.0636957 13.9539C0.0219956 14.0245 0 14.0613 0 14.1431C0 15.0358 0.718295 15.7181 1.6011 15.7181H16.3989C17.2819 15.7181 18 15.0356 18 14.1431C18 14.0613 17.978 14.0025 17.9365 13.9321L10.6702 1.64457ZM16.3989 14.8016H1.6011C1.26635 14.8016 0.978577 14.5837 0.925192 14.2531L8.11364 2.09571C8.4697 1.52588 8.70294 1.1877 8.99989 1.1877C9.28881 1.1877 9.56284 1.61616 9.8804 2.10556L17.0746 14.2506C17.0214 14.581 16.7336 14.8016 16.3989 14.8016Z" fill="white"/>
</svg>
