<svg width="29" height="9" viewBox="0 0 29 9" fill="none" xmlns="http://www.w3.org/2000/svg">
<path d="M3.625 0.875C1.63125 0.875 0 2.50625 0 4.5C0 6.49375 1.63125 8.125 3.625 8.125C5.61875 8.125 7.25 6.49375 7.25 4.5C7.25 2.50625 5.61875 0.875 3.625 0.875ZM25.375 0.875C23.3813 0.875 21.75 2.50625 21.75 4.5C21.75 6.49375 23.3813 8.125 25.375 8.125C27.3688 8.125 29 6.49375 29 4.5C29 2.50625 27.3688 0.875 25.375 0.875ZM14.5 0.875C12.5063 0.875 10.875 2.50625 10.875 4.5C10.875 6.49375 12.5063 8.125 14.5 8.125C16.4938 8.125 18.125 6.49375 18.125 4.5C18.125 2.50625 16.4938 0.875 14.5 0.875Z" fill="#363E4E"/>
</svg>
