<svg width="29" height="29" viewBox="0 0 29 29" fill="none" xmlns="http://www.w3.org/2000/svg">
<path d="M5.07502 3.14172C3.87587 3.14172 2.90002 4.11757 2.90002 5.31672C2.90002 6.51587 3.87587 7.49172 5.07502 7.49172C6.27417 7.49172 7.25002 6.51587 7.25002 5.31672C7.25002 4.11757 6.27417 3.14172 5.07502 3.14172ZM5.07502 6.52506C4.40899 6.52506 3.86669 5.98324 3.86669 5.31672C3.86669 4.65021 4.40899 4.10839 5.07502 4.10839C5.74106 4.10839 6.28336 4.65021 6.28336 5.31672C6.28336 5.98324 5.74106 6.52506 5.07502 6.52506Z" fill="#363E4E"/>
<path d="M24.1667 5.07507C24.4336 5.07507 24.65 4.85867 24.65 4.59173C24.65 4.32479 24.4336 4.1084 24.1667 4.1084C23.8997 4.1084 23.6833 4.32479 23.6833 4.59173C23.6833 4.85867 23.8997 5.07507 24.1667 5.07507Z" fill="#363E4E"/>
<path d="M22.2333 5.07507C22.5003 5.07507 22.7167 4.85867 22.7167 4.59173C22.7167 4.32479 22.5003 4.1084 22.2333 4.1084C21.9664 4.1084 21.75 4.32479 21.75 4.59173C21.75 4.85867 21.9664 5.07507 22.2333 5.07507Z" fill="#363E4E"/>
<path d="M25.1334 6.52502C25.4003 6.52502 25.6167 6.30862 25.6167 6.04168C25.6167 5.77475 25.4003 5.55835 25.1334 5.55835C24.8664 5.55835 24.65 5.77475 24.65 6.04168C24.65 6.30862 24.8664 6.52502 25.1334 6.52502Z" fill="#363E4E"/>
<path d="M23.2 6.52502C23.4669 6.52502 23.6833 6.30862 23.6833 6.04168C23.6833 5.77475 23.4669 5.55835 23.2 5.55835C22.9331 5.55835 22.7167 5.77475 22.7167 6.04168C22.7167 6.30862 22.9331 6.52502 23.2 6.52502Z" fill="#363E4E"/>
<path d="M20.3 5.07507C20.5669 5.07507 20.7833 4.85867 20.7833 4.59173C20.7833 4.32479 20.5669 4.1084 20.3 4.1084C20.033 4.1084 19.8167 4.32479 19.8167 4.59173C19.8167 4.85867 20.033 5.07507 20.3 5.07507Z" fill="#363E4E"/>
<path d="M21.2667 6.52502C21.5336 6.52502 21.75 6.30862 21.75 6.04168C21.75 5.77475 21.5336 5.55835 21.2667 5.55835C20.9997 5.55835 20.7833 5.77475 20.7833 6.04168C20.7833 6.30862 20.9997 6.52502 21.2667 6.52502Z" fill="#363E4E"/>
<path d="M18.3666 5.07507C18.6336 5.07507 18.85 4.85867 18.85 4.59173C18.85 4.32479 18.6336 4.1084 18.3666 4.1084C18.0997 4.1084 17.8833 4.32479 17.8833 4.59173C17.8833 4.85867 18.0997 5.07507 18.3666 5.07507Z" fill="#363E4E"/>
<path d="M19.3333 6.52502C19.6002 6.52502 19.8166 6.30862 19.8166 6.04168C19.8166 5.77475 19.6002 5.55835 19.3333 5.55835C19.0664 5.55835 18.85 5.77475 18.85 6.04168C18.85 6.30862 19.0664 6.52502 19.3333 6.52502Z" fill="#363E4E"/>
<path d="M16.4333 5.07507C16.7002 5.07507 16.9166 4.85867 16.9166 4.59173C16.9166 4.32479 16.7002 4.1084 16.4333 4.1084C16.1663 4.1084 15.95 4.32479 15.95 4.59173C15.95 4.85867 16.1663 5.07507 16.4333 5.07507Z" fill="#363E4E"/>
<path d="M17.4001 6.52502C17.667 6.52502 17.8834 6.30862 17.8834 6.04168C17.8834 5.77475 17.667 5.55835 17.4001 5.55835C17.1331 5.55835 16.9167 5.77475 16.9167 6.04168C16.9167 6.30862 17.1331 6.52502 17.4001 6.52502Z" fill="#363E4E"/>
<path d="M29 8.1645V2.4689C29 1.24075 28.0009 0.241699 26.7728 0.241699H2.2272C0.99905 0.241699 0 1.24075 0 2.4689V8.16402C0 8.87403 0.339783 9.49995 0.858883 9.90788C0.339783 10.3163 0 10.9427 0 11.6522V17.3473C0 18.0574 0.339783 18.6833 0.858883 19.0912C0.339783 19.4996 0 20.126 0 20.8356V26.5307C0 27.7593 0.99905 28.7584 2.2272 28.7584H26.7723C28.0005 28.7584 28.9995 27.7593 28.9995 26.5312V20.8356C28.9995 20.1256 28.6597 19.4996 28.1406 19.0917C28.6602 18.6838 29 18.0574 29 17.3478V11.6522C29 10.9422 28.6602 10.3163 28.1411 9.90837C28.6602 9.50043 29 8.87403 29 8.1645ZM28.0333 20.8356V26.5307C28.0333 27.2257 27.4678 27.7912 26.7728 27.7912H2.2272C1.53217 27.7917 0.966667 27.2262 0.966667 26.5312V20.8356C0.966667 20.1405 1.53217 19.575 2.2272 19.575H26.7723C27.4678 19.575 28.0333 20.1405 28.0333 20.8356ZM28.0333 11.6522V17.3473C28.0333 18.0424 27.4678 18.6079 26.7728 18.6079H2.2272C1.53217 18.6084 0.966667 18.0429 0.966667 17.3478V11.6522C0.966667 10.9572 1.53217 10.3917 2.2272 10.3917H26.7723C27.4678 10.3917 28.0333 10.9572 28.0333 11.6522ZM2.2272 9.42503C1.53217 9.42503 0.966667 8.85953 0.966667 8.1645V2.4689C0.966667 1.77387 1.53217 1.20837 2.2272 1.20837H26.7723C27.4678 1.20837 28.0333 1.77387 28.0333 2.4689V8.16402C28.0333 8.85905 27.4678 9.42455 26.7728 9.42455H2.2272V9.42503Z" fill="#363E4E"/>
<path d="M5.07502 16.675C6.27417 16.675 7.25002 15.6991 7.25002 14.5C7.25002 13.3008 6.27417 12.325 5.07502 12.325C3.87587 12.325 2.90002 13.3008 2.90002 14.5C2.90002 15.6991 3.87587 16.675 5.07502 16.675ZM5.07502 13.2916C5.74106 13.2916 6.28336 13.8334 6.28336 14.5C6.28336 15.1665 5.74106 15.7083 5.07502 15.7083C4.40899 15.7083 3.86669 15.1665 3.86669 14.5C3.86669 13.8334 4.40899 13.2916 5.07502 13.2916Z" fill="#363E4E"/>
<path d="M24.1667 14.2584C24.4336 14.2584 24.65 14.042 24.65 13.7751C24.65 13.5081 24.4336 13.2917 24.1667 13.2917C23.8997 13.2917 23.6833 13.5081 23.6833 13.7751C23.6833 14.042 23.8997 14.2584 24.1667 14.2584Z" fill="#363E4E"/>
<path d="M22.2333 14.2584C22.5003 14.2584 22.7167 14.042 22.7167 13.7751C22.7167 13.5081 22.5003 13.2917 22.2333 13.2917C21.9664 13.2917 21.75 13.5081 21.75 13.7751C21.75 14.042 21.9664 14.2584 22.2333 14.2584Z" fill="#363E4E"/>
<path d="M25.1334 15.7084C25.4003 15.7084 25.6167 15.492 25.6167 15.225C25.6167 14.9581 25.4003 14.7417 25.1334 14.7417C24.8664 14.7417 24.65 14.9581 24.65 15.225C24.65 15.492 24.8664 15.7084 25.1334 15.7084Z" fill="#363E4E"/>
<path d="M23.2 15.7084C23.4669 15.7084 23.6833 15.492 23.6833 15.225C23.6833 14.9581 23.4669 14.7417 23.2 14.7417C22.9331 14.7417 22.7167 14.9581 22.7167 15.225C22.7167 15.492 22.9331 15.7084 23.2 15.7084Z" fill="#363E4E"/>
<path d="M20.3 14.2584C20.5669 14.2584 20.7833 14.042 20.7833 13.7751C20.7833 13.5081 20.5669 13.2917 20.3 13.2917C20.033 13.2917 19.8167 13.5081 19.8167 13.7751C19.8167 14.042 20.033 14.2584 20.3 14.2584Z" fill="#363E4E"/>
<path d="M21.2667 15.7084C21.5336 15.7084 21.75 15.492 21.75 15.225C21.75 14.9581 21.5336 14.7417 21.2667 14.7417C20.9997 14.7417 20.7833 14.9581 20.7833 15.225C20.7833 15.492 20.9997 15.7084 21.2667 15.7084Z" fill="#363E4E"/>
<path d="M18.3666 14.2584C18.6336 14.2584 18.85 14.042 18.85 13.7751C18.85 13.5081 18.6336 13.2917 18.3666 13.2917C18.0997 13.2917 17.8833 13.5081 17.8833 13.7751C17.8833 14.042 18.0997 14.2584 18.3666 14.2584Z" fill="#363E4E"/>
<path d="M19.3333 15.7084C19.6002 15.7084 19.8166 15.492 19.8166 15.225C19.8166 14.9581 19.6002 14.7417 19.3333 14.7417C19.0664 14.7417 18.85 14.9581 18.85 15.225C18.85 15.492 19.0664 15.7084 19.3333 15.7084Z" fill="#363E4E"/>
<path d="M16.4333 14.2584C16.7002 14.2584 16.9166 14.042 16.9166 13.7751C16.9166 13.5081 16.7002 13.2917 16.4333 13.2917C16.1663 13.2917 15.95 13.5081 15.95 13.7751C15.95 14.042 16.1663 14.2584 16.4333 14.2584Z" fill="#363E4E"/>
<path d="M17.4001 15.7084C17.667 15.7084 17.8834 15.492 17.8834 15.225C17.8834 14.9581 17.667 14.7417 17.4001 14.7417C17.1331 14.7417 16.9167 14.9581 16.9167 15.225C16.9167 15.492 17.1331 15.7084 17.4001 15.7084Z" fill="#363E4E"/>
<path d="M5.07502 25.8584C6.27417 25.8584 7.25002 24.8826 7.25002 23.6834C7.25002 22.4843 6.27417 21.5084 5.07502 21.5084C3.87587 21.5084 2.90002 22.4843 2.90002 23.6834C2.90002 24.8826 3.87587 25.8584 5.07502 25.8584ZM5.07502 22.4751C5.74106 22.4751 6.28336 23.0169 6.28336 23.6834C6.28336 24.3499 5.74106 24.8918 5.07502 24.8918C4.40899 24.8918 3.86669 24.3499 3.86669 23.6834C3.86669 23.0169 4.40899 22.4751 5.07502 22.4751Z" fill="#363E4E"/>
<path d="M24.1667 23.4416C24.4336 23.4416 24.65 23.2252 24.65 22.9583C24.65 22.6914 24.4336 22.475 24.1667 22.475C23.8997 22.475 23.6833 22.6914 23.6833 22.9583C23.6833 23.2252 23.8997 23.4416 24.1667 23.4416Z" fill="#363E4E"/>
<path d="M22.2333 23.4416C22.5003 23.4416 22.7167 23.2252 22.7167 22.9583C22.7167 22.6914 22.5003 22.475 22.2333 22.475C21.9664 22.475 21.75 22.6914 21.75 22.9583C21.75 23.2252 21.9664 23.4416 22.2333 23.4416Z" fill="#363E4E"/>
<path d="M25.1334 24.8917C25.4003 24.8917 25.6167 24.6753 25.6167 24.4084C25.6167 24.1414 25.4003 23.925 25.1334 23.925C24.8664 23.925 24.65 24.1414 24.65 24.4084C24.65 24.6753 24.8664 24.8917 25.1334 24.8917Z" fill="#363E4E"/>
<path d="M23.2 24.8917C23.4669 24.8917 23.6833 24.6753 23.6833 24.4084C23.6833 24.1414 23.4669 23.925 23.2 23.925C22.9331 23.925 22.7167 24.1414 22.7167 24.4084C22.7167 24.6753 22.9331 24.8917 23.2 24.8917Z" fill="#363E4E"/>
<path d="M20.3 23.4416C20.5669 23.4416 20.7833 23.2252 20.7833 22.9583C20.7833 22.6914 20.5669 22.475 20.3 22.475C20.033 22.475 19.8167 22.6914 19.8167 22.9583C19.8167 23.2252 20.033 23.4416 20.3 23.4416Z" fill="#363E4E"/>
<path d="M21.2667 24.8917C21.5336 24.8917 21.75 24.6753 21.75 24.4084C21.75 24.1414 21.5336 23.925 21.2667 23.925C20.9997 23.925 20.7833 24.1414 20.7833 24.4084C20.7833 24.6753 20.9997 24.8917 21.2667 24.8917Z" fill="#363E4E"/>
<path d="M18.3666 23.4416C18.6336 23.4416 18.85 23.2252 18.85 22.9583C18.85 22.6914 18.6336 22.475 18.3666 22.475C18.0997 22.475 17.8833 22.6914 17.8833 22.9583C17.8833 23.2252 18.0997 23.4416 18.3666 23.4416Z" fill="#363E4E"/>
<path d="M19.3333 24.8917C19.6002 24.8917 19.8166 24.6753 19.8166 24.4084C19.8166 24.1414 19.6002 23.925 19.3333 23.925C19.0664 23.925 18.85 24.1414 18.85 24.4084C18.85 24.6753 19.0664 24.8917 19.3333 24.8917Z" fill="#363E4E"/>
<path d="M16.4333 23.4416C16.7002 23.4416 16.9166 23.2252 16.9166 22.9583C16.9166 22.6914 16.7002 22.475 16.4333 22.475C16.1663 22.475 15.95 22.6914 15.95 22.9583C15.95 23.2252 16.1663 23.4416 16.4333 23.4416Z" fill="#363E4E"/>
<path d="M17.4001 24.8917C17.667 24.8917 17.8834 24.6753 17.8834 24.4084C17.8834 24.1414 17.667 23.925 17.4001 23.925C17.1331 23.925 16.9167 24.1414 16.9167 24.4084C16.9167 24.6753 17.1331 24.8917 17.4001 24.8917Z" fill="#363E4E"/>
</svg>
